Labs/Lab3/simulation/qsim/LogicalStep_Lab3.msim.vcd
$comment
	File created using the following command:
		vcd file LogicalStep_Lab3.msim.vcd -direction
$end
$date
	Sun Jul 12 20:33:19 2020
$end
$version
	ModelSim Version 10.5b
$end
$timescale
	1ps
$end

$scope module logicalstep_lab3_top_vhd_vec_tst $end
$var wire 1 ! clk_in $end
$var wire 1 " leds [11] $end
$var wire 1 # leds [10] $end
$var wire 1 $ leds [9] $end
$var wire 1 % leds [8] $end
$var wire 1 & leds [7] $end
$var wire 1 ' leds [6] $end
$var wire 1 ( leds [5] $end
$var wire 1 ) leds [4] $end
$var wire 1 * leds [3] $end
$var wire 1 + leds [2] $end
$var wire 1 , leds [1] $end
$var wire 1 - leds [0] $end
$var wire 1 . pb [3] $end
$var wire 1 / pb [2] $end
$var wire 1 0 pb [1] $end
$var wire 1 1 pb [0] $end
$var wire 1 2 sw [7] $end
$var wire 1 3 sw [6] $end
$var wire 1 4 sw [5] $end
$var wire 1 5 sw [4] $end
$var wire 1 6 sw [3] $end
$var wire 1 7 sw [2] $end
$var wire 1 8 sw [1] $end
$var wire 1 9 sw [0] $end

$scope module i1 $end
$var wire 1 : gnd $end
$var wire 1 ; vcc $end
$var wire 1 < unknown $end
$var wire 1 = devoe $end
$var wire 1 > devclrn $end
$var wire 1 ? devpor $end
$var wire 1 @ ww_devoe $end
$var wire 1 A ww_devclrn $end
$var wire 1 B ww_devpor $end
$var wire 1 C ww_clk_in $end
$var wire 1 D ww_pb [3] $end
$var wire 1 E ww_pb [2] $end
$var wire 1 F ww_pb [1] $end
$var wire 1 G ww_pb [0] $end
$var wire 1 H ww_sw [7] $end
$var wire 1 I ww_sw [6] $end
$var wire 1 J ww_sw [5] $end
$var wire 1 K ww_sw [4] $end
$var wire 1 L ww_sw [3] $end
$var wire 1 M ww_sw [2] $end
$var wire 1 N ww_sw [1] $end
$var wire 1 O ww_sw [0] $end
$var wire 1 P ww_leds [11] $end
$var wire 1 Q ww_leds [10] $end
$var wire 1 R ww_leds [9] $end
$var wire 1 S ww_leds [8] $end
$var wire 1 T ww_leds [7] $end
$var wire 1 U ww_leds [6] $end
$var wire 1 V ww_leds [5] $end
$var wire 1 W ww_leds [4] $end
$var wire 1 X ww_leds [3] $end
$var wire 1 Y ww_leds [2] $end
$var wire 1 Z ww_leds [1] $end
$var wire 1 [ ww_leds [0] $end
$var wire 1 \ \leds[0]~output_o\ $end
$var wire 1 ] \leds[1]~output_o\ $end
$var wire 1 ^ \leds[2]~output_o\ $end
$var wire 1 _ \leds[3]~output_o\ $end
$var wire 1 ` \leds[4]~output_o\ $end
$var wire 1 a \leds[5]~output_o\ $end
$var wire 1 b \leds[6]~output_o\ $end
$var wire 1 c \leds[7]~output_o\ $end
$var wire 1 d \leds[8]~output_o\ $end
$var wire 1 e \leds[9]~output_o\ $end
$var wire 1 f \leds[10]~output_o\ $end
$var wire 1 g \leds[11]~output_o\ $end
$var wire 1 h \sw[7]~input_o\ $end
$var wire 1 i \sw[3]~input_o\ $end
$var wire 1 j \pb[3]~input_o\ $end
$var wire 1 k \inst1|hex_out[3]~0_combout\ $end
$var wire 1 l \sw[6]~input_o\ $end
$var wire 1 m \sw[2]~input_o\ $end
$var wire 1 n \inst1|hex_out[2]~1_combout\ $end
$var wire 1 o \clk_in~input_o\ $end
$var wire 1 p \pb[0]~input_o\ $end
$var wire 1 q \pb[1]~input_o\ $end
$var wire 1 r \pb[2]~input_o\ $end
$var wire 1 s \inst2|counter:cnt[2]~1_combout\ $end
$var wire 1 t \inst2|counter:cnt[1]~4\ $end
$var wire 1 u \inst2|counter:cnt[2]~3\ $end
$var wire 1 v \inst2|counter:cnt[3]~1_combout\ $end
$var wire 1 w \inst2|counter:cnt[3]~q\ $end
$var wire 1 x \inst3|compx4_lt~0_combout\ $end
$var wire 1 y \inst3|compx4_gt~2_combout\ $end
$var wire 1 z \sw[4]~input_o\ $end
$var wire 1 { \sw[0]~input_o\ $end
$var wire 1 | \inst1|hex_out[0]~3_combout\ $end
$var wire 1 } \sw[5]~input_o\ $end
$var wire 1 ~ \sw[1]~input_o\ $end
$var wire 1 !! \inst1|hex_out[1]~2_combout\ $end
$var wire 1 "! \inst3|compx4_lt~1_combout\ $end
$var wire 1 #! \inst3|compx4_lt~2_combout\ $end
$var wire 1 $! \inst2|Equal1~0_combout\ $end
$var wire 1 %! \inst2|counter:cnt[2]~4_combout\ $end
$var wire 1 &! \inst2|counter:cnt[0]~0_combout\ $end
$var wire 1 '! \inst2|counter:cnt[0]~q\ $end
$var wire 1 (! \inst2|counter:cnt[1]~2_cout\ $end
$var wire 1 )! \inst2|counter:cnt[1]~3_combout\ $end
$var wire 1 *! \inst2|counter:cnt[1]~q\ $end
$var wire 1 +! \inst2|counter~0_combout\ $end
$var wire 1 ,! \inst3|compx4_gt~1_combout\ $end
$var wire 1 -! \inst2|counter~1_combout\ $end
$var wire 1 .! \inst2|counter:cnt[2]~2_combout\ $end
$var wire 1 /! \inst2|counter:cnt[2]~q\ $end
$var wire 1 0! \inst3|compx4_gt~0_combout\ $end
$var wire 1 1! \inst3|compx4_gt~3_combout\ $end
$var wire 1 2! \inst3|inst3|compx1_eq~0_combout\ $end
$var wire 1 3! \inst3|compx4_eq~0_combout\ $end
$var wire 1 4! \inst4|TEST_PASS~0_combout\ $end
$var wire 1 5! \inst4|TEST_PASS~1_combout\ $end
$var wire 1 6! \inst4|TEST_PASS~2_combout\ $end
$var wire 1 7! \inst4|TEST_PASS~3_combout\ $end
$var wire 1 8! \inst4|TEST_PASS~4_combout\ $end
$var wire 1 9! \inst4|TEST_PASS~5_combout\ $end
$var wire 1 :! \inst4|TEST_PASS~6_combout\ $end
$var wire 1 ;! \inst4|TEST_PASS~7_combout\ $end
$var wire 1 <! \inst4|TEST_PASS~8_combout\ $end
$var wire 1 =! \inst4|TEST_PASS~9_combout\ $end
$var wire 1 >! \inst5|leds\ [5] $end
$var wire 1 ?! \inst5|leds\ [4] $end
$var wire 1 @! \inst5|leds\ [3] $end
$var wire 1 A! \inst5|leds\ [2] $end
$var wire 1 B! \inst5|leds\ [1] $end
$var wire 1 C! \inst5|leds\ [0] $end
$var wire 1 D! \inst5|ALT_INV_leds\ [3] $end
$var wire 1 E! \inst3|ALT_INV_compx4_eq~0_combout\ $end
$upscope $end
$upscope $end
$enddefinitions $end
#0
$dumpvars
0!
0:
1;
x<
1=
1>
1?
1@
1A
1B
0C
1\
0]
0^
1_
0`
0a
0b
0c
0d
0e
0f
0g
0h
1i
0j
1k
1l
1m
1n
0o
0p
0q
0r
1s
1t
0u
0v
0w
0x
0y
0z
1{
1|
0}
1~
1!!
0"!
0#!
1$!
1%!
1&!
0'!
0(!
0)!
0*!
1+!
1,!
1-!
0.!
0/!
10!
11!
12!
13!
04!
05!
06!
17!
18!
19!
0:!
0;!
0<!
0=!
0E!
0.
0/
00
01
02
13
04
05
16
17
18
19
0"
0#
0$
0%
0&
0'
0(
0)
1*
0+
0,
1-
0D
0E
0F
0G
0H
1I
0J
0K
1L
1M
1N
1O
0P
0Q
0R
0S
0T
0U
0V
0W
1X
0Y
0Z
1[
x>!
x?!
0@!
xA!
xB!
xC!
1D!
$end
#7500
1!
1C
1o
1'!
1d
0$!
0&!
1(!
1S
1)!
1%
#15000
0!
0C
0o
#22500
1!
1C
1o
0'!
1*!
1e
0d
0)!
0t
02!
1&!
0(!
1R
0S
1)!
1t
1.!
0%
1$
0.!
#30000
0!
0C
0o
#37500
1!
1C
1o
1'!
1d
0&!
1(!
0,!
07!
1;!
1S
0)!
0t
1%
1.!
#45000
0!
0C
0o
#52500
1!
1C
1o
0'!
0*!
1/!
1f
0e
0d
0.!
1u
08!
1)!
1t
12!
1&!
0(!
1,!
17!
0;!
1Q
0R
0S
18!
0)!
1.!
0u
1v
0%
0$
1#
0v
#60000
0!
0C
0o
#67500
1!
1C
1o
1'!
1d
0&!
1(!
1S
1)!
1%
#75000
0!
0C
0o
#82500
1!
1C
1o
0'!
1*!
1e
0d
0)!
0t
02!
1&!
0(!
1R
0S
1)!
1t
0.!
1u
0%
1$
1v
1.!
0u
0v
#90000
0!
0C
0o
#97500
1!
1C
1o
1'!
1d
0&!
1(!
0,!
07!
1;!
1S
08!
0)!
0t
1%
0.!
1u
1v
#105000
0!
0C
0o
#112500
1!
1C
1o
1w
0'!
0*!
0/!
0f
0e
0d
1g
1.!
0u
18!
1)!
1t
12!
1&!
0(!
1,!
17!
0;!
0v
09!
0Q
0R
0S
1P
0)!
0.!
19!
1v
0%
0$
0#
1"
#120000
0!
0C
0o
#125000
1/
1E
1r
0s
1@!
1=!
0D!
1b
0%!
0_
1U
0&!
0X
1'
0*
#127500
1!
1C
1o
#135000
0!
0C
0o
#142500
1!
1C
1o
#150000
0!
0C
0o
#157500
1!
1C
1o
#165000
0!
0C
0o
#172500
1!
1C
1o
#180000
0!
0C
0o
#187500
1!
1C
1o
#195000
0!
0C
0o
#202500
1!
1C
1o
#210000
0!
0C
0o
#217500
1!
1C
1o
#225000
0!
0C
0o
#232500
1!
1C
1o
#240000
0!
0C
0o
#247500
1!
1C
1o
#250000
0/
0E
0r
1s
0@!
0=!
1D!
0b
1%!
1_
0U
1&!
1X
0'
1*
#255000
0!
0C
0o
#262500
1!
1C
1o
1'!
1d
0&!
1(!
1S
1)!
1%
#270000
0!
0C
0o
#277500
1!
1C
1o
0'!
1*!
1e
0d
0)!
0t
02!
1&!
0(!
1R
0S
1)!
1t
1.!
0%
1$
0.!
#285000
0!
0C
0o
#292500
1!
1C
1o
1'!
1d
0&!
1(!
0,!
07!
1;!
1S
0)!
0t
1%
1.!
#300000
0!
0C
0o
#307500
1!
1C
1o
0'!
0*!
1/!
1f
0e
0d
0.!
1u
1y
00!
08!
1:!
1)!
1t
12!
1&!
0(!
1,!
17!
0;!
1Q
0R
0S
18!
0)!
1.!
0u
09!
0v
0%
0$
1#
1v
19!
#315000
0!
0C
0o
#322500
1!
1C
1o
1'!
1d
0&!
1(!
1S
1)!
1%
#330000
0!
0C
0o
#337500
1!
1C
1o
0'!
1*!
1e
0d
0)!
0t
02!
1&!
0(!
1R
0S
1)!
1t
0.!
1u
0%
1$
0v
1.!
0u
1v
#345000
0!
0C
0o
#352500
1!
1C
1o
1'!
1d
0&!
1(!
0+!
0,!
03!
07!
1;!
1E!
1S
08!
1@!
1<!
01!
0-!
0)!
0t
1%
1]
0D!
0\
1)!
1u
0v
0%!
09!
1Z
0_
0[
1,
1&!
1v
0X
0-
0*
#360000
0!
0C
0o
#367500
1!
1C
1o
#375000
0!
1/
0C
1E
1r
0o
0s
1=!
1b
1U
1'
#382500
1!
1C
1o
#390000
0!
0C
0o
#397500
1!
1C
1o
#405000
0!
0C
0o
#412500
1!
1C
1o
#420000
0!
0C
0o
#427500
1!
1C
1o
#435000
0!
0C
0o
#442500
1!
1C
1o
#450000
0!
0C
0o
#457500
1!
1C
1o
#465000
0!
0C
0o
#472500
1!
1C
1o
#480000
0!
0C
0o
#487500
1!
1C
1o
#495000
0!
0C
0o
#500000
0/
1.
0E
1D
1j
0r
1c
1s
0=!
0k
0|
0!!
12!
1T
0b
1"!
13!
1x
0y
1&
0E!
0U
0@!
0<!
1#!
0'
0]
1D!
1^
1%!
0Z
1_
1Y
0,
0&!
1X
1+
1*
#502500
1!
1C
1o
0'!
0d
1&!
0(!
1+!
17!
0;!
0S
18!
0)!
0%
#510000
0!
0C
0o
#517500
1!
1C
1o
1'!
0*!
0e
1d
1)!
1t
02!
0&!
1(!
0R
1S
0)!
0t
0.!
1%
0$
1.!
#525000
0!
0C
0o
#532500
1!
1C
1o
0'!
0d
0"!
1&!
0(!
0S
1)!
1t
0%
0.!
#540000
0!
0C
0o
#547500
1!
1C
1o
1'!
1*!
0/!
0f
1e
1d
1.!
0u
0:!
0)!
0t
12!
1"!
0&!
1(!
07!
1;!
0Q
1R
1S
1)!
0.!
1u
0v
1%
1$
0#
1v
#555000
0!
0C
0o
#562500
1!
1C
1o
0'!
0d
1&!
0(!
17!
0;!
0S
0)!
0%
#570000
0!
0C
0o
#577500
1!
1C
1o
1'!
0*!
0e
1d
1)!
1t
02!
0&!
1(!
0R
1S
0)!
0t
1.!
0u
1%
0$
0v
0.!
1u
1v
#585000
0!
0C
0o
#592500
1!
1C
1o
0'!
0d
0"!
1&!
0(!
0S
1)!
1t
0%
1.!
0u
0v
#600000
0!
0C
0o
#607500
1!
1C
1o
0w
1'!
1*!
1/!
1f
1e
1d
0g
0.!
1u
0)!
0t
12!
1"!
0&!
1(!
07!
1;!
1v
0x
1y
1Q
1R
1S
0P
08!
1)!
1.!
0v
1%
1$
1#
0"
#615000
0!
0C
0o
#622500
1!
1C
1o
0'!
0d
1&!
0(!
17!
0;!
0S
18!
0)!
0%
#625000
1/
1E
1r
0s
1@!
0D!
0%!
0_
0&!
0X
0*
#630000
0!
0C
0o
#637500
1!
1C
1o
#645000
0!
0C
0o
#652500
1!
1C
1o
#660000
0!
0C
0o
#667500
1!
1C
1o
#675000
0!
0C
0o
#682500
1!
1C
1o
#690000
0!
0C
0o
#697500
1!
1C
1o
#705000
0!
0C
0o
#712500
1!
1C
1o
#720000
0!
0C
0o
#727500
1!
1C
1o
#735000
0!
0C
0o
#742500
1!
1C
1o
#750000
0!
0/
0C
0E
0r
0o
1s
0@!
1D!
1%!
1_
1&!
1X
1*
#757500
1!
1C
1o
1'!
0*!
0e
1d
1)!
1t
02!
0&!
1(!
0R
1S
0)!
0t
0.!
1%
0$
1.!
#765000
0!
0C
0o
#772500
1!
1C
1o
0'!
0d
0"!
1&!
0(!
03!
1E!
0S
1@!
1)!
1t
0#!
0%
1]
0D!
0^
0%!
0.!
1Z
0_
0Y
1,
0&!
0X
0+
0*
#780000
0!
0C
0o
#787500
1!
1C
1o
#795000
0!
0C
0o
#802500
1!
1C
1o
#810000
0!
0C
0o
#817500
1!
1C
1o
#825000
0!
0C
0o
#832500
1!
1C
1o
#840000
0!
0C
0o
#847500
1!
1C
1o
#855000
0!
0C
0o
#862500
1!
1C
1o
#870000
0!
0C
0o
#875000
1/
1E
1r
0s
#877500
1!
1C
1o
#885000
0!
0C
0o
#892500
1!
1C
1o
#900000
0!
0C
0o
#907500
1!
1C
1o
#915000
0!
0C
0o
#922500
1!
1C
1o
#930000
0!
0C
0o
#937500
1!
1C
1o
#945000
0!
0C
0o
#952500
1!
1C
1o
#960000
0!
0C
0o
#967500
1!
1C
1o
#975000
0!
0C
0o
#982500
1!
1C
1o
#990000
0!
0C
0o
#997500
1!
1C
1o
