Labs/Lab4/simulation/qsim/LogicalStep_Lab4.msim.vcd
$comment
	File created using the following command:
		vcd file LogicalStep_Lab4.msim.vcd -direction
$end
$date
	Fri Jul 31 18:19:41 2020
$end
$version
	ModelSim Version 10.5b
$end
$timescale
	1ps
$end

$scope module logicalstep_lab4_top_vhd_vec_tst $end
$var wire 1 ! Clk $end
$var wire 1 " leds [15] $end
$var wire 1 # leds [14] $end
$var wire 1 $ leds [13] $end
$var wire 1 % leds [12] $end
$var wire 1 & leds [11] $end
$var wire 1 ' leds [10] $end
$var wire 1 ( leds [9] $end
$var wire 1 ) leds [8] $end
$var wire 1 * leds [7] $end
$var wire 1 + leds [6] $end
$var wire 1 , leds [5] $end
$var wire 1 - leds [4] $end
$var wire 1 . leds [3] $end
$var wire 1 / leds [2] $end
$var wire 1 0 leds [1] $end
$var wire 1 1 leds [0] $end
$var wire 1 2 pb [3] $end
$var wire 1 3 pb [2] $end
$var wire 1 4 pb [1] $end
$var wire 1 5 pb [0] $end
$var wire 1 6 rst_n $end
$var wire 1 7 sw [7] $end
$var wire 1 8 sw [6] $end
$var wire 1 9 sw [5] $end
$var wire 1 : sw [4] $end
$var wire 1 ; sw [3] $end
$var wire 1 < sw [2] $end
$var wire 1 = sw [1] $end
$var wire 1 > sw [0] $end

$scope module i1 $end
$var wire 1 ? gnd $end
$var wire 1 @ vcc $end
$var wire 1 A unknown $end
$var wire 1 B devoe $end
$var wire 1 C devclrn $end
$var wire 1 D devpor $end
$var wire 1 E ww_devoe $end
$var wire 1 F ww_devclrn $end
$var wire 1 G ww_devpor $end
$var wire 1 H ww_Clk $end
$var wire 1 I ww_rst_n $end
$var wire 1 J ww_pb [3] $end
$var wire 1 K ww_pb [2] $end
$var wire 1 L ww_pb [1] $end
$var wire 1 M ww_pb [0] $end
$var wire 1 N ww_sw [7] $end
$var wire 1 O ww_sw [6] $end
$var wire 1 P ww_sw [5] $end
$var wire 1 Q ww_sw [4] $end
$var wire 1 R ww_sw [3] $end
$var wire 1 S ww_sw [2] $end
$var wire 1 T ww_sw [1] $end
$var wire 1 U ww_sw [0] $end
$var wire 1 V ww_leds [15] $end
$var wire 1 W ww_leds [14] $end
$var wire 1 X ww_leds [13] $end
$var wire 1 Y ww_leds [12] $end
$var wire 1 Z ww_leds [11] $end
$var wire 1 [ ww_leds [10] $end
$var wire 1 \ ww_leds [9] $end
$var wire 1 ] ww_leds [8] $end
$var wire 1 ^ ww_leds [7] $end
$var wire 1 _ ww_leds [6] $end
$var wire 1 ` ww_leds [5] $end
$var wire 1 a ww_leds [4] $end
$var wire 1 b ww_leds [3] $end
$var wire 1 c ww_leds [2] $end
$var wire 1 d ww_leds [1] $end
$var wire 1 e ww_leds [0] $end
$var wire 1 f \pb[3]~input_o\ $end
$var wire 1 g \leds[0]~output_o\ $end
$var wire 1 h \leds[1]~output_o\ $end
$var wire 1 i \leds[2]~output_o\ $end
$var wire 1 j \leds[3]~output_o\ $end
$var wire 1 k \leds[4]~output_o\ $end
$var wire 1 l \leds[5]~output_o\ $end
$var wire 1 m \leds[6]~output_o\ $end
$var wire 1 n \leds[7]~output_o\ $end
$var wire 1 o \leds[8]~output_o\ $end
$var wire 1 p \leds[9]~output_o\ $end
$var wire 1 q \leds[10]~output_o\ $end
$var wire 1 r \leds[11]~output_o\ $end
$var wire 1 s \leds[12]~output_o\ $end
$var wire 1 t \leds[13]~output_o\ $end
$var wire 1 u \leds[14]~output_o\ $end
$var wire 1 v \leds[15]~output_o\ $end
$var wire 1 w \Clk~input_o\ $end
$var wire 1 x \pb[1]~input_o\ $end
$var wire 1 y \inst1|inst4|ud_bin_counter[0]~3_combout\ $end
$var wire 1 z \rst_n~input_o\ $end
$var wire 1 { \inst1|inst4|ud_bin_counter[1]~5_cout\ $end
$var wire 1 | \inst1|inst4|ud_bin_counter[1]~6_combout\ $end
$var wire 1 } \inst1|inst4|ud_bin_counter[1]~7\ $end
$var wire 1 ~ \inst1|inst4|ud_bin_counter[2]~9\ $end
$var wire 1 !! \inst1|inst4|ud_bin_counter[3]~10_combout\ $end
$var wire 1 "! \pb[2]~input_o\ $end
$var wire 1 #! \sw[3]~input_o\ $end
$var wire 1 $! \sw[2]~input_o\ $end
$var wire 1 %! \sw[1]~input_o\ $end
$var wire 1 &! \sw[0]~input_o\ $end
$var wire 1 '! \inst1|inst4|process_0~2_combout\ $end
$var wire 1 (! \inst1|inst4|process_0~4_combout\ $end
$var wire 1 )! \inst1|inst4|process_0~3_combout\ $end
$var wire 1 *! \inst1|inst4|ud_bin_counter[2]~8_combout\ $end
$var wire 1 +! \inst1|inst2|inst2|compx1_eq~0_combout\ $end
$var wire 1 ,! \inst1|inst2|compx4_eq~0_combout\ $end
$var wire 1 -! \inst1|inst2|compx4_eq~combout\ $end
$var wire 1 .! \inst1|counter_y_enabled~q\ $end
$var wire 1 /! \inst1|inst3|ud_bin_counter[0]~3_combout\ $end
$var wire 1 0! \inst1|inst3|ud_bin_counter[1]~5_cout\ $end
$var wire 1 1! \inst1|inst3|ud_bin_counter[1]~6_combout\ $end
$var wire 1 2! \inst1|inst3|ud_bin_counter[1]~7\ $end
$var wire 1 3! \inst1|inst3|ud_bin_counter[2]~9\ $end
$var wire 1 4! \inst1|inst3|ud_bin_counter[3]~10_combout\ $end
$var wire 1 5! \sw[7]~input_o\ $end
$var wire 1 6! \sw[6]~input_o\ $end
$var wire 1 7! \sw[5]~input_o\ $end
$var wire 1 8! \sw[4]~input_o\ $end
$var wire 1 9! \inst1|inst3|process_0~2_combout\ $end
$var wire 1 :! \inst1|inst3|process_0~4_combout\ $end
$var wire 1 ;! \inst1|inst3|process_0~3_combout\ $end
$var wire 1 <! \inst1|inst3|ud_bin_counter[2]~8_combout\ $end
$var wire 1 =! \inst1|inst1|inst2|compx1_eq~0_combout\ $end
$var wire 1 >! \inst1|inst1|compx4_eq~0_combout\ $end
$var wire 1 ?! \inst1|inst1|compx4_eq~combout\ $end
$var wire 1 @! \inst1|counter_x_enabled~q\ $end
$var wire 1 A! \inst1|process_2~1_combout\ $end
$var wire 1 B! \inst2|next_state.State_1st_extend~0_combout\ $end
$var wire 1 C! \inst2|current_state.State_1st_extend~q\ $end
$var wire 1 D! \inst2|current_state.State_2nd_extend~q\ $end
$var wire 1 E! \inst2|current_state.State_3rd_extend~q\ $end
$var wire 1 F! \inst2|Selector1~0_combout\ $end
$var wire 1 G! \inst2|current_state.State_extended~q\ $end
$var wire 1 H! \inst2|DIRECTION_UP1_DOWN0~0_combout\ $end
$var wire 1 I! \inst2|DIRECTION_UP1_DOWN0~q\ $end
$var wire 1 J! \inst2|next_state.State_1st_retract~0_combout\ $end
$var wire 1 K! \inst2|current_state.State_1st_retract~q\ $end
$var wire 1 L! \inst2|current_state.State_2nd_retract~q\ $end
$var wire 1 M! \inst2|current_state.State_3rd_retract~q\ $end
$var wire 1 N! \inst2|Selector0~0_combout\ $end
$var wire 1 O! \inst2|current_state.State_retracted~q\ $end
$var wire 1 P! \inst1|process_2~0_combout\ $end
$var wire 1 Q! \inst1|comb~1_combout\ $end
$var wire 1 R! \inst1|fault_error~combout\ $end
$var wire 1 S! \inst1|comb~0_combout\ $end
$var wire 1 T! \inst1|Error_led~combout\ $end
$var wire 1 U! \pb[0]~input_o\ $end
$var wire 1 V! \inst3|grappler_state~0_combout\ $end
$var wire 1 W! \inst3|grappler_state~q\ $end
$var wire 1 X! \inst2|WideOr3~0_combout\ $end
$var wire 1 Y! \inst2|WideOr2~0_combout\ $end
$var wire 1 Z! \inst1|y_target_pos\ [3] $end
$var wire 1 [! \inst1|y_target_pos\ [2] $end
$var wire 1 \! \inst1|y_target_pos\ [1] $end
$var wire 1 ]! \inst1|y_target_pos\ [0] $end
$var wire 1 ^! \inst1|inst4|ud_bin_counter\ [3] $end
$var wire 1 _! \inst1|inst4|ud_bin_counter\ [2] $end
$var wire 1 `! \inst1|inst4|ud_bin_counter\ [1] $end
$var wire 1 a! \inst1|inst4|ud_bin_counter\ [0] $end
$var wire 1 b! \inst1|x_temp_target\ [3] $end
$var wire 1 c! \inst1|x_temp_target\ [2] $end
$var wire 1 d! \inst1|x_temp_target\ [1] $end
$var wire 1 e! \inst1|x_temp_target\ [0] $end
$var wire 1 f! \inst1|inst3|ud_bin_counter\ [3] $end
$var wire 1 g! \inst1|inst3|ud_bin_counter\ [2] $end
$var wire 1 h! \inst1|inst3|ud_bin_counter\ [1] $end
$var wire 1 i! \inst1|inst3|ud_bin_counter\ [0] $end
$var wire 1 j! \inst1|y_temp_target\ [3] $end
$var wire 1 k! \inst1|y_temp_target\ [2] $end
$var wire 1 l! \inst1|y_temp_target\ [1] $end
$var wire 1 m! \inst1|y_temp_target\ [0] $end
$var wire 1 n! \inst1|x_target_pos\ [3] $end
$var wire 1 o! \inst1|x_target_pos\ [2] $end
$var wire 1 p! \inst1|x_target_pos\ [1] $end
$var wire 1 q! \inst1|x_target_pos\ [0] $end
$var wire 1 r! \ALT_INV_pb[2]~input_o\ $end
$var wire 1 s! \ALT_INV_pb[1]~input_o\ $end
$var wire 1 t! \ALT_INV_Clk~input_o\ $end
$var wire 1 u! \ALT_INV_pb[0]~input_o\ $end
$var wire 1 v! \inst1|ALT_INV_process_2~0_combout\ $end
$var wire 1 w! \inst2|ALT_INV_WideOr2~0_combout\ $end
$upscope $end
$upscope $end
$enddefinitions $end
#0
$dumpvars
0!
16
0?
1@
xA
1B
1C
1D
1E
1F
1G
0H
1I
xf
0g
0h
0i
0j
0k
0l
0m
0n
0o
0p
0q
0r
0s
0t
0u
0v
0w
0x
0y
1z
0{
1|
1}
0~
1!!
0"!
0#!
1$!
1%!
0&!
0'!
0(!
0)!
1*!
0+!
0,!
0-!
0.!
0/!
00!
11!
12!
03!
14!
15!
06!
07!
08!
09!
0:!
0;!
1<!
0=!
0>!
0?!
0@!
0A!
0B!
0C!
0D!
0E!
0F!
0G!
1H!
0I!
0J!
0K!
0L!
0M!
0N!
0O!
0P!
xQ!
xR!
0S!
0T!
0U!
0V!
0W!
0X!
1Y!
1r!
1s!
1t!
1u!
1v!
0w!
x2
03
04
05
17
08
09
0:
0;
1<
1=
0>
0"
0#
0$
0%
0&
0'
0(
0)
0*
0+
0,
0-
0.
0/
00
01
xJ
0K
0L
0M
1N
0O
0P
0Q
0R
1S
1T
0U
0V
0W
0X
0Y
0Z
0[
0\
0]
0^
0_
0`
0a
0b
0c
0d
0e
0Z!
0[!
0\!
0]!
0^!
0_!
0`!
0a!
0b!
0c!
0d!
0e!
0f!
0g!
0h!
0i!
0j!
0k!
0l!
0m!
0n!
0o!
0p!
0q!
$end
#5000
1!
1H
1w
0t!
#10000
0!
0H
0w
1t!
#15000
1!
1H
1w
0t!
#20000
0!
13
0H
1K
1"!
0w
1t!
0r!
#25000
1!
1H
1w
0t!
#30000
0!
0H
0w
1t!
#35000
1!
1H
1w
0t!
#40000
0!
03
0H
0K
0"!
0w
1t!
1r!
1k!
1l!
1b!
1n!
1\!
1[!
1(!
1+!
1'!
1,!
1?!
1-!
#45000
1!
1H
1w
0t!
#50000
0!
0H
0w
1t!
1.!
1@!
1/!
1;!
1y
1)!
1A!
0H!
0|
0*!
0!!
01!
0<!
04!
#55000
1!
1H
1w
0t!
1a!
1i!
1s
1o
0/!
10!
1>!
0y
1{
1Y
1]
1|
11!
1)
1%
#60000
0!
0H
0w
1t!
#65000
1!
1H
1w
0t!
0a!
1`!
0i!
1h!
1t
0s
1p
0o
01!
02!
1/!
00!
0|
0}
1y
0{
0'!
0,!
1X
0Y
1\
0]
1|
1}
1*!
11!
12!
1<!
0)
1(
0%
1$
0<!
0*!
#70000
0!
0H
0w
1t!
#75000
1!
1H
1w
0t!
1a!
1i!
1s
1o
0/!
10!
0y
1{
1,!
1Y
1]
0|
0}
01!
02!
1)
1%
1<!
1*!
#80000
0!
0H
0w
1t!
#85000
1!
1H
1w
0t!
0a!
0`!
1_!
0i!
0h!
1g!
1u
0t
0s
1q
0p
0o
0<!
13!
1=!
11!
12!
1/!
00!
0>!
0*!
1~
0(!
0+!
1|
1}
1y
0{
1'!
1W
0X
0Y
1[
0\
0]
1(!
0|
1*!
0~
0)!
1!!
01!
1<!
03!
14!
0)
0(
1'
0%
0$
1#
04!
1|
0*!
1~
1)!
0|
1*!
0~
0!!
#90000
0!
0H
0w
1t!
#95000
1!
1H
1w
0t!
1a!
1i!
1s
1o
0/!
10!
1>!
0y
1{
1Y
1]
1|
11!
1)
1%
#100000
0!
0<
0=
0H
0T
0S
0$!
0%!
0w
1t!
#105000
1!
1H
1w
0t!
0a!
1`!
0i!
1h!
1t
0s
1p
0o
01!
02!
1/!
00!
0|
0}
1y
0{
0'!
0,!
1X
0Y
1\
0]
0-!
0(!
1|
1}
0*!
1~
11!
12!
0<!
13!
0)
1(
0%
1$
14!
1<!
03!
1!!
1*!
0~
0)!
0|
0}
0*!
1~
04!
0!!
1*!
#110000
0!
0H
0w
1t!
0.!
0y
#115000
1!
1H
1w
0t!
1i!
1s
0/!
10!
1Y
01!
02!
1%
0<!
13!
14!
#120000
0!
07
0H
0N
05!
0w
1t!
#125000
1!
1H
1w
0t!
0i!
0h!
1f!
0g!
0u
1v
0t
0s
1<!
03!
0=!
04!
0;!
11!
12!
1/!
00!
0>!
0W
1V
0X
0Y
0?!
0%
0$
0#
1"
#130000
0!
0H
0w
1t!
0@!
0/!
0A!
1H!
#135000
1!
1H
1w
0t!
#140000
0!
0H
0w
1t!
#145000
1!
1H
1w
0t!
#150000
0!
0H
0w
1t!
#155000
1!
1H
1w
0t!
#160000
0!
0H
0w
1t!
#165000
1!
1H
1w
0t!
#170000
0!
0H
0w
1t!
#175000
1!
1H
1w
0t!
#180000
0!
0H
0w
1t!
#185000
1!
1H
1w
0t!
#190000
0!
0H
0w
1t!
#195000
1!
1H
1w
0t!
#200000
0!
14
0H
1L
1x
0w
1t!
0s!
#205000
1!
1H
1w
0t!
#210000
0!
0H
0w
1t!
#215000
1!
1H
1w
0t!
#220000
0!
04
0H
0L
0x
0w
1t!
1s!
1I!
1B!
0H!
1N!
#225000
1!
1H
1w
0t!
1C!
1O!
1n
0B!
1H!
1Q!
xS!
1^
1*
#230000
0!
0H
0w
1t!
#235000
1!
1H
1w
0t!
0C!
1D!
0Y!
1w!
1m
1_
1+
#240000
0!
0H
0w
1t!
#245000
1!
1H
1w
0t!
0D!
1E!
1F!
1X!
1l
1`
1,
#250000
0!
0H
0w
1t!
#255000
1!
1H
1w
0t!
0E!
1G!
1k
0H!
1V!
1a
1-
#260000
0!
0H
0w
1t!
#265000
1!
1H
1w
0t!
#270000
0!
0H
0w
1t!
#275000
1!
1H
1w
0t!
#280000
0!
15
0H
1M
1U!
0w
1t!
0u!
#285000
1!
1H
1w
0t!
#290000
0!
0H
0w
1t!
#295000
1!
1H
1w
0t!
#300000
0!
05
0H
0M
0U!
0w
1t!
1u!
1W!
1j
0V!
1b
1.
#305000
1!
1H
1w
0t!
#310000
0!
0H
0w
1t!
#315000
1!
1H
1w
0t!
#320000
0!
0H
0w
1t!
#325000
1!
1H
1w
0t!
#330000
0!
0H
0w
1t!
#335000
1!
1H
1w
0t!
#340000
0!
0H
0w
1t!
#345000
1!
1H
1w
0t!
#350000
0!
0H
0w
1t!
#355000
1!
1H
1w
0t!
#360000
0!
0H
0w
1t!
#365000
1!
1H
1w
0t!
#370000
0!
0H
0w
1t!
#375000
1!
1H
1w
0t!
#380000
0!
0H
0w
1t!
#385000
1!
1H
1w
0t!
#390000
0!
0H
0w
1t!
#395000
1!
1H
1w
0t!
#400000
0!
0H
0w
1t!
#405000
1!
1H
1w
0t!
#410000
0!
0H
0w
1t!
#415000
1!
1H
1w
0t!
#420000
0!
1<
18
1:
1>
0H
1U
1S
1Q
1O
16!
18!
1$!
1&!
0w
1t!
#425000
1!
1H
1w
0t!
#430000
0!
0H
0w
1t!
#435000
1!
1H
1w
0t!
#440000
0!
0H
0w
1t!
#445000
1!
1H
1w
0t!
#450000
0!
0H
0w
1t!
#455000
1!
1H
1w
0t!
#460000
0!
06
0H
0I
0z
0w
1t!
0`!
0k!
0[!
0l!
0\!
0_!
0f!
0b!
0n!
0G!
0I!
0O!
0W!
0j
0n
0k
0v
0q
0p
xQ!
0S!
1Y!
0N!
0F!
1H!
0X!
14!
0*!
1|
1}
0w!
0b
0^
0a
0V
0[
0\
0l
1*!
0~
0.
0-
0*
0(
0'
0"
0m
0`
1!!
0_
0,
0+
#465000
1!
1H
1w
0t!
#470000
0!
0H
0w
1t!
#475000
1!
1H
1w
0t!
#480000
0!
0H
0w
1t!
#485000
1!
1H
1w
0t!
#490000
0!
0H
0w
1t!
#495000
1!
1H
1w
0t!
#500000
0!
0H
0w
1t!
#505000
1!
1H
1w
0t!
#510000
0!
0H
0w
1t!
#515000
1!
1H
1w
0t!
#520000
0!
0H
0w
1t!
#525000
1!
1H
1w
0t!
#530000
0!
0H
0w
1t!
#535000
1!
1H
1w
0t!
#540000
0!
16
0H
1I
1z
0w
1t!
#545000
1!
1H
1w
0t!
#550000
0!
0H
0w
1t!
#555000
1!
1H
1w
0t!
#560000
0!
0H
0w
1t!
#565000
1!
1H
1w
0t!
#570000
0!
0H
0w
1t!
#575000
1!
1H
1w
0t!
#580000
0!
0H
0w
1t!
#585000
1!
1H
1w
0t!
#590000
0!
0H
0w
1t!
#595000
1!
1H
1w
0t!
#600000
0!
0H
0w
1t!
#605000
1!
1H
1w
0t!
#610000
0!
0H
0w
1t!
#615000
1!
1H
1w
0t!
#620000
0!
0H
0w
1t!
#625000
1!
1H
1w
0t!
#630000
0!
0H
0w
1t!
#635000
1!
1H
1w
0t!
#640000
0!
13
0H
1K
1"!
0w
1t!
0r!
#645000
1!
1H
1w
0t!
#650000
0!
0H
0w
1t!
#655000
1!
1H
1w
0t!
#660000
0!
03
0H
0K
0"!
0w
1t!
1r!
1k!
1m!
1c!
1e!
1q!
1o!
1]!
1[!
1(!
1+!
1'!
1,!
1:!
1=!
19!
1>!
1?!
1-!
#665000
1!
1H
1w
0t!
#670000
0!
0H
0w
1t!
1.!
1@!
1/!
1;!
1y
1)!
1A!
0H!
0|
0*!
0!!
01!
0<!
04!
#675000
1!
1H
1w
0t!
1a!
1i!
1s
1o
0/!
10!
09!
0>!
0y
1{
0'!
0,!
1Y
1]
1|
11!
1)
1%
#680000
0!
0H
0w
1t!
#685000
1!
1H
1w
0t!
0a!
1`!
0i!
1h!
1t
0s
1p
0o
01!
02!
1/!
00!
1>!
0|
0}
1y
0{
1,!
1X
0Y
1\
0]
1|
1}
1*!
11!
12!
1<!
0)
1(
0%
1$
0<!
0*!
#690000
0!
0H
0w
1t!
#695000
1!
1H
1w
0t!
1a!
1i!
1s
1o
0/!
10!
0y
1{
1Y
1]
0|
0}
01!
02!
1)
1%
1<!
1*!
#700000
0!
0H
0w
1t!
#705000
1!
1H
1w
0t!
0a!
0`!
1_!
0i!
0h!
1g!
1u
0t
0s
1q
0p
0o
0<!
13!
0:!
0=!
11!
12!
1/!
00!
19!
0*!
1~
0(!
0+!
1|
1}
1y
0{
1'!
1W
0X
0Y
1[
0\
0]
1(!
0|
1*!
0~
0)!
1!!
1:!
01!
1<!
03!
0;!
14!
0)
0(
1'
0%
0$
1#
11!
0<!
13!
1;!
1|
0*!
1~
1)!
0|
1*!
0~
01!
1<!
03!
04!
0!!
#710000
0!
0H
0w
1t!
#715000
1!
1H
1w
0t!
1a!
1i!
1s
1o
0/!
10!
09!
0>!
0y
1{
0'!
0,!
1Y
1]
0-!
0(!
1|
0?!
0:!
11!
1)
1%
0;!
0)!
0|
0}
0*!
1~
1!!
01!
02!
0<!
13!
14!
04!
1<!
0!!
1*!
#720000
0!
0H
0w
1t!
0.!
0@!
1/!
1y
0A!
1H!
#725000
1!
1H
1w
0t!
#730000
0!
0H
0w
1t!
#735000
1!
1H
1w
0t!
#740000
0!
0H
0w
1t!
#745000
1!
1H
1w
0t!
#750000
0!
0H
0w
1t!
#755000
1!
1H
1w
0t!
#760000
0!
0H
0w
1t!
#765000
1!
1H
1w
0t!
#770000
0!
0H
0w
1t!
#775000
1!
1H
1w
0t!
#780000
0!
0H
0w
1t!
#785000
1!
1H
1w
0t!
#790000
0!
0H
0w
1t!
#795000
1!
1H
1w
0t!
#800000
0!
0H
0w
1t!
#805000
1!
1H
1w
0t!
#810000
0!
0H
0w
1t!
#815000
1!
1H
1w
0t!
#820000
0!
0H
0w
1t!
#825000
1!
1H
1w
0t!
#830000
0!
0H
0w
1t!
#835000
1!
1H
1w
0t!
#840000
0!
0H
0w
1t!
#845000
1!
1H
1w
0t!
#850000
0!
0H
0w
1t!
#855000
1!
1H
1w
0t!
#860000
0!
14
0H
1L
1x
0w
1t!
0s!
#865000
1!
1H
1w
0t!
#870000
0!
0H
0w
1t!
#875000
1!
1H
1w
0t!
#880000
0!
04
0H
0L
0x
0w
1t!
1s!
1I!
1B!
0H!
1N!
#885000
1!
1H
1w
0t!
1C!
1O!
1n
0B!
1H!
1Q!
xS!
1^
1*
#890000
0!
0H
0w
1t!
#895000
1!
1H
1w
0t!
0C!
1D!
0Y!
1w!
1m
1_
1+
#900000
0!
0H
0w
1t!
#905000
1!
1H
1w
0t!
0D!
1E!
1F!
1X!
1l
1`
1,
#910000
0!
0H
0w
1t!
#915000
1!
1H
1w
0t!
0E!
1G!
1k
0H!
1V!
1a
1-
#920000
0!
0H
0w
1t!
#925000
1!
1H
1w
0t!
#930000
0!
0H
0w
1t!
#935000
1!
1H
1w
0t!
#940000
0!
15
0H
1M
1U!
0w
1t!
0u!
#945000
1!
1H
1w
0t!
#950000
0!
0H
0w
1t!
#955000
1!
1H
1w
0t!
#960000
0!
05
0H
0M
0U!
0w
1t!
1u!
1W!
1j
0V!
1b
1.
#965000
1!
1H
1w
0t!
#970000
0!
0H
0w
1t!
#975000
1!
1H
1w
0t!
#980000
0!
0H
0w
1t!
#985000
1!
1H
1w
0t!
#990000
0!
0H
0w
1t!
#995000
1!
1H
1w
0t!
